........................
----------------------------------------------------------------------
Ran 24 tests in 9.116s

OK
Name             Stmts   Miss Branch BrPart  Cover   Missing
------------------------------------------------------------
Collatz.py          39      0     10      0   100%
TestCollatz.py     105      0      0      0   100%
------------------------------------------------------------
TOTAL              144      0     10      0   100%
